{
  "PUSHGATEWAY_URL": "http://cms-monitoring.cern.ch:30091",
  "dbs3_full_global.sh": "/project/awg/cms/dbs/PROD_GLOBAL",
  "cms-aso.sh": "/project/awg/cms/CMS_ASO/filetransfersdb",
  "cms-dbs3-blocks.sh": "/project/awg/cms/dbs3verify/CMS_DBS3_PROD_GLOBAL/blocks",
  "cms-dbs3-datasets.sh": "/project/awg/cms/dbs3verify/CMS_DBS3_PROD_GLOBAL/datasets",
  "cms-dbs3-files.sh": "/project/awg/cms/dbs3verify/CMS_DBS3_PROD_GLOBAL/files",
  "phedex-blk-replicas-snapshot.sh": "/project/awg/cms/phedex/block-replicas-snapshots/csv",
  "phedex-file-catalog.sh": "/project/awg/cms/phedex/catalog/csv",
  "rucio_table_dumps.sh": "/project/awg/cms/rucio"
}
